\relax 
\@writefile{lot}{\contentsline {table}{\numberline {1}{\ignorespaces My caption}}{4}}
\newlabel{my-label}{{1}{4}}
\@writefile{toc}{\contentsline {section}{\numberline {0.1}bilinear mapping proof}{11}}
